…
    ## [1] 0.476565

# CV using `modelr`

``` r
cv_df = 
  crossv_mc(nonlin_df, 100) 
```

``` r
cv_df %>% pull(train) %>% .[[1]] %>% as_tibble
```

    ## # A tibble: 79 x 3
    ##       id       x       y
    ##    <int>   <dbl>   <dbl>
    ##  1     3 0.624    0.272 
    ##  2     4 0.822   -1.09  
    ##  3     5 0.388    0.600 
    ##  4     6 0.767   -1.22  
    ##  5     7 0.00328 -0.0580
    ##  6     9 0.843   -1.63  
    ##  7    11 0.979   -3.26  
    ##  8    13 0.475    0.337 
    ##  9    14 0.400    0.482 
    ## 10    15 0.580    0.376 
    ## # ... with 69 more rows

``` r
cv_df %>% pull(test) %>% .[[1]] %>% as_tibble
```

    ## # A tibble: 21 x 3
    ##       id      x      y
    ##    <int>  <dbl>  <dbl>
    ##  1     1 0.232   1.21 
    ##  2     2 0.0232  0.618
    ##  3     8 0.705  -0.653
    ##  4    10 0.0128  0.434
    ##  5    12 0.0589  0.447
    ##  6    17 0.542   0.280
    ##  7    26 0.455   1.25 
    ##  8    30 0.678  -0.255
    ##  9    32 0.102   0.414
    ## 10    36 0.173   0.982
    ## # ... with 11 more rows
…
